<?xml version="1.0" encoding="UTF-8" standalone="no"?>
<!-- Created with Inkscape (http://www.inkscape.org/) -->

<svg
   xmlns:dc="http://purl.org/dc/elements/1.1/"
   xmlns:cc="http://creativecommons.org/ns#"
   xmlns:rdf="http://www.w3.org/1999/02/22-rdf-syntax-ns#"
   xmlns:svg="http://www.w3.org/2000/svg"
   xmlns="http://www.w3.org/2000/svg"
   xmlns:sodipodi="http://sodipodi.sourceforge.net/DTD/sodipodi-0.dtd"
   xmlns:inkscape="http://www.inkscape.org/namespaces/inkscape"
   id="svg2"
   version="1.1"
   inkscape:version="0.91 r13725"
   xml:space="preserve"
   width="143.8954mm"
   height="143.8954mm"
   viewBox="0 0 509.8656 509.8656"
   sodipodi:docname="bajo.svg"><metadata
     id="metadata8"><rdf:RDF><cc:Work
         rdf:about=""><dc:format>image/svg+xml</dc:format><dc:type
           rdf:resource="http://purl.org/dc/dcmitype/StillImage" /><dc:title /></cc:Work></rdf:RDF></metadata><defs
     id="defs6"><clipPath
       clipPathUnits="userSpaceOnUse"
       id="clipPath16"><path
         d="M 0,500 500,500 500,0 0,0 0,500 Z"
         id="path18"
         inkscape:connector-curvature="0" /></clipPath></defs><sodipodi:namedview
     pagecolor="#ffffff"
     bordercolor="#666666"
     borderopacity="1"
     objecttolerance="10"
     gridtolerance="10"
     guidetolerance="10"
     inkscape:pageopacity="0"
     inkscape:pageshadow="2"
     inkscape:window-width="1600"
     inkscape:window-height="849"
     id="namedview4"
     showgrid="false"
     units="mm"
     fit-margin-left="1"
     fit-margin-top="1"
     fit-margin-bottom="1"
     fit-margin-right="1"
     inkscape:zoom="0.7552"
     inkscape:cx="-40.579255"
     inkscape:cy="246.01156"
     inkscape:window-x="0"
     inkscape:window-y="0"
     inkscape:window-maximized="1"
     inkscape:current-layer="g10" /><g
     id="g10"
     inkscape:groupmode="layer"
     inkscape:label="bass-guitar-publicdomainvectors.org"
     transform="matrix(1.25,0,0,-1.25,-32.63434,613.80676)"><circle
       style="opacity:1;fill:#ffffff;fill-opacity:1;stroke:#ffffff;stroke-width:1.24292564;stroke-linejoin:miter;stroke-miterlimit:4;stroke-dasharray:none;stroke-opacity:1"
       id="path4137"
       cx="100.25985"
       cy="-177.43243"
       transform="scale(1,-1)"
       r="59.409065" /><g
       id="g4899"
       transform="matrix(0.84688955,0.57829783,-0.53176712,0.92099411,178.53787,-108.65054)"><path
         inkscape:connector-curvature="0"
         id="path394"
         style="fill:#000000;fill-opacity:1;fill-rule:nonzero;stroke:none"
         d="m 485.094,318.131 c -0.126,0.387 -0.709,3.863 -0.709,3.863 l -52.181,-7.726 1.414,-1.643 1.174,-1.364 7.611,-8.841 c 0,0 42.818,15.324 42.691,15.711 m -52.477,4.964 c 0,0 51.189,5.34 51.062,5.853 -0.13,0.515 -0.453,6.18 -0.453,6.18 0,0 -24.041,-3.446 -46.19,0.932 l -2.022,-5.935 -0.562,-1.645 -1.237,-3.631 -0.563,-1.654 -0.035,-0.1 z m 62.715,-7.926 c 0,0 -37.76,-12.01 -55.119,-25.159 -10.589,11.295 -16.731,17.333 -23.437,16.274 l -0.27,1.781 -0.231,1.528 -0.679,4.49 -0.233,1.527 -0.706,4.672 -0.229,1.527 -0.545,3.582 -0.232,1.526 -0.012,0.09 c 0,0 14.355,6.823 18.356,16.234 8.943,-2.123 22.611,-3.025 34.612,-3.427 l 0.477,4.754 4.612,-0.462 -0.444,-4.426 c 11.137,-0.273 19.9,-0.159 20.39,-0.323 3.127,-7.879 3.69,-24.188 3.69,-24.188 m -28.815,29.829 6.326,-0.288 c 1.43,-0.066 2.641,1.042 2.705,2.472 l 0.028,0.574 c 0.066,1.429 -1.041,2.642 -2.471,2.707 l -6.329,0.286 c -1.429,0.067 -2.64,-1.04 -2.706,-2.468 l -0.026,-0.575 c -0.066,-1.432 1.042,-2.643 2.473,-2.708 m 18.5,-44.459 c -0.601,1.371 -2.206,1.995 -3.579,1.394 l -6.075,-2.668 c -1.373,-0.602 -1.996,-2.203 -1.396,-3.575 l 0.245,-0.552 c 0.601,-1.372 2.205,-1.998 3.575,-1.396 l 6.075,2.667 c 1.376,0.603 1.997,2.203 1.396,3.575 l -0.241,0.555 z m -22.393,-9.125 c -0.603,1.372 -2.208,1.998 -3.577,1.396 l -1.238,-0.544 -2.413,5.125 -4.195,-1.974 2.362,-5.016 -0.591,-0.259 c -1.375,-0.601 -1.999,-2.204 -1.397,-3.576 l 0.242,-0.551 c 0.601,-1.372 2.204,-1.998 3.575,-1.396 l 6.078,2.667 c 1.374,0.603 1.996,2.204 1.395,3.575 l -0.241,0.553 z m 17.241,11.18 -2.413,5.128 -4.196,-1.974 2.414,-5.128 4.195,1.974 z m -32.953,43.876 6.32,-0.454 c 1.427,-0.102 2.666,0.973 2.77,2.398 l 0.043,0.576 c 0.101,1.426 -0.975,2.668 -2.401,2.771 l -6.319,0.451 c -1.429,0.104 -2.668,-0.974 -2.77,-2.399 l -0.043,-0.573 c -0.105,-1.427 0.972,-2.669 2.4,-2.77 m 4.762,-5.851 0.489,4.872 -4.611,0.461 -0.489,-4.871 4.611,-0.462 z M 40.452,241.926 c 0.571,0 1.071,0.26 1.424,0.654 0.307,0.342 0.507,0.783 0.507,1.278 0,0.129 -0.049,0.242 -0.074,0.365 -0.176,0.885 -0.92,1.567 -1.857,1.567 -1.068,0 -1.932,-0.865 -1.932,-1.932 0,-1.068 0.864,-1.932 1.932,-1.932 m -1.546,7.727 c 1.016,0 1.825,0.792 1.903,1.788 0.004,0.05 0.029,0.093 0.029,0.143 0,0.52 -0.213,0.991 -0.546,1.338 -0.352,0.364 -0.841,0.595 -1.386,0.595 -1.067,0 -1.932,-0.866 -1.932,-1.933 0,-1.066 0.865,-1.931 1.932,-1.931 m -1.546,9.272 c 0.497,0 0.94,0.2 1.281,0.509 0.394,0.353 0.651,0.853 0.651,1.422 0,0.081 -0.035,0.147 -0.045,0.224 -0.115,0.957 -0.899,1.708 -1.887,1.708 -1.067,0 -1.931,-0.864 -1.931,-1.932 0,-1.067 0.864,-1.931 1.931,-1.931 m 0.387,11.203 c 0,0.115 -0.046,0.213 -0.065,0.322 -0.158,0.907 -0.914,1.61 -1.867,1.61 -1.066,0 -1.931,-0.865 -1.931,-1.932 0,-1.067 0.865,-1.932 1.931,-1.932 0.558,0 1.05,0.245 1.403,0.621 0.323,0.346 0.529,0.802 0.529,1.311 m 43.039,-10.438 23.843,3.985 1.525,0.254 -0.884,6.275 -1.526,-0.247 -23.95,-3.877 -1.525,-0.248 0.992,-6.397 1.525,0.255 z m 1.32,-8.51 23.7,4.142 1.521,0.266 -0.958,6.812 -1.525,-0.256 -23.822,-3.981 -1.525,-0.255 1.086,-6.995 1.523,0.267 z m -12.424,22.514 -26.037,-3.911 -2.034,-0.307 -1.529,-0.228 1.169,-7.843 1.526,0.247 2.03,0.329 25.596,4.143 1.527,0.247 -0.864,5.561 c -0.113,0.732 0.054,1.437 0.403,2.03 l -1.787,-0.268 z m 88.702,-9.181 -0.908,6.428 -9.107,-1.523 0.902,-6.498 9.113,1.593 z m 8.539,17.232 7.391,1.198 -1.023,6.312 -39.497,-5.931 -18.243,-2.741 -1.53,-0.229 0.988,-7.011 1.526,0.247 1.897,0.309 16.334,2.642 10.811,1.751 -0.904,6.509 1.531,0.211 0.899,-6.472 9.089,1.471 -0.894,6.331 1.53,0.218 0.891,-6.303 7.679,1.243 -1.113,6.363 1.521,0.267 1.117,-6.385 z m 1.152,-15.539 -1.108,6.321 -7.967,-1.332 0.907,-6.416 8.168,1.427 z m -1.373,7.843 -1.038,5.929 -7.727,-1.25 0.846,-6.001 7.919,1.322 z m -9.444,-1.578 -0.849,6.009 -9.093,-1.472 0.841,-6.059 9.101,1.522 z m 18.26,3.051 -0.956,5.896 -7.372,-1.193 1.034,-5.92 7.294,1.217 z m 6.621,8.688 -1.056,6.215 -6.265,-0.941 1.02,-6.294 6.301,1.02 z m -5.358,-16.481 -1.016,6.267 -7.273,-1.214 1.103,-6.311 7.186,1.258 z m 24.218,4.234 -0.993,6.085 -6.601,-1.102 1.147,-6.112 6.447,1.129 z m 164.914,33.816 -14.336,-2.396 0.892,-4.943 14.302,2.499 -0.858,4.84 z m -15.861,-2.651 -13.646,-2.281 0.913,-5.056 13.627,2.382 -0.894,4.955 z m 17.386,2.907 0.852,-4.831 13.58,2.376 -0.968,4.705 -13.464,-2.25 z m -157.777,-24.805 6.907,1.154 -0.94,5.682 -6.914,-1.119 0.947,-5.717 z m -18.066,-3.019 -1.086,5.789 -6.585,-1.066 0.995,-5.841 6.676,1.118 z m -8.202,-1.373 -0.994,5.849 -6.313,-1.021 0.954,-5.889 6.353,1.061 z m 199.034,31.702 0.966,-4.695 13.526,2.364 -0.779,4.621 -13.713,-2.29 z m -182.67,-28.966 -0.943,5.77 -6.78,-1.097 1.085,-5.783 6.638,1.11 z m 122.94,18.981 0.952,-5.153 12.147,2.123 -0.915,5.066 -12.184,-2.036 z m -121.417,-18.726 6.857,1.146 -0.949,5.726 -6.85,-1.11 0.942,-5.762 z m 33.074,3.961 0.836,-5.852 7.875,1.377 -0.862,5.788 -7.849,-1.313 z m 9.373,1.566 0.86,-5.774 6.439,1.126 -0.904,5.716 -6.395,-1.068 z m 154.97,19.598 0.118,-0.695 -1.525,-0.257 -0.113,0.685 -13.473,-2.355 0.281,-1.367 -1.513,-0.311 -0.29,1.41 -13.622,-2.379 0.266,-1.509 -1.52,-0.268 -0.268,1.51 -14.295,-2.497 0.412,-2.28 59.372,11.224 -0.137,1.482 -13.693,-2.393 z m -172.245,-22.485 0.796,-5.918 6.417,1.123 -0.836,5.86 -6.377,-1.065 z m -41.744,-13.354 -1.055,6.2 -6.365,-1.063 1.013,-6.257 6.407,1.12 z m 8.323,1.455 -1.151,6.12 -6.704,-1.12 1.054,-6.189 6.801,1.189 z m 8.497,7.733 0.992,-6.075 6.866,1.2 -0.998,6.022 -6.86,-1.147 z m 8.386,1.403 0.994,-6.01 6.902,1.204 -0.989,5.96 -6.907,-1.154 z m 41.732,6.974 0.905,-5.706 6.174,1.079 -0.883,5.663 -6.196,-1.036 z m -33.301,-5.566 0.987,-5.947 6.393,1.117 -0.796,5.93 -6.584,-1.1 z m 57.837,9.667 0.866,-5.525 7.013,1.226 -0.826,5.478 -7.053,-1.179 z m 8.577,1.434 0.824,-5.467 10.17,1.777 -0.966,5.366 -10.028,-1.676 z m 36.414,6.086 -10.883,-1.821 1.024,-5.234 10.815,1.89 -0.956,5.165 z m 16.42,-4.029 0.448,-2.487 13.597,2.569 -0.417,2.299 -13.628,-2.381 z m 60.848,12.204 13.807,2.414 -0.422,4.563 -14.162,-2.367 0.777,-4.61 z m -89.675,-10.247 -12.453,-2.084 0.963,-5.354 12.518,2.188 -1.028,5.25 z M 79.014,204.741 c 0,2.187 -1.583,3.96 -3.537,3.96 -1.35,0 -2.509,-0.859 -3.105,-2.104 0.475,0.633 1.178,1.044 1.974,1.044 1.43,0 2.59,-1.299 2.59,-2.9 0,-1.6 -1.16,-2.899 -2.59,-2.899 -0.796,0 -1.499,0.411 -1.974,1.045 0.596,-1.247 1.755,-2.106 3.105,-2.106 1.954,0 3.537,1.774 3.537,3.96 m -23.399,6.182 c 0,2.986 -2.162,5.408 -4.829,5.408 -1.846,0 -3.43,-1.173 -4.242,-2.876 0.648,0.865 1.609,1.428 2.696,1.428 1.952,0 3.536,-1.774 3.536,-3.96 0,-2.188 -1.584,-3.96 -3.536,-3.96 -1.087,0 -2.048,0.56 -2.696,1.427 0.812,-1.703 2.396,-2.876 4.242,-2.876 2.667,0 4.829,2.424 4.829,5.409 m 240.411,76.082 0.549,-3.059 -121.463,-22.961 -0.697,-11.236 c -5.721,-6.15 -6.971,-12.473 -5.464,-17.478 -1.698,1.089 -3.184,2.618 -4.329,4.532 -2.976,4.973 -3.844,13.589 3.513,21.501 l -1.132,1.051 -0.086,0.08 -2.248,-0.424 c -7.184,-8.782 -6.048,-18.2 -2.702,-23.795 3.767,-6.292 10.565,-9.206 17.346,-7.438 3.168,0.837 4.04,-0.549 4.326,-1 1.778,-2.82 0.233,-10.149 -4.497,-15.741 -3.13,-3.701 -9.883,-9.278 -19.972,-5.063 -16.202,6.773 -31.489,10.43 -40.883,9.775 -8.047,-0.561 -13.296,-7.161 -18.854,-14.151 -6.834,-8.595 -14.582,-18.335 -29.334,-19.852 -14.729,-1.519 -27.526,2.264 -38.038,11.229 -17.298,14.752 -24.623,40.642 -25.706,59.95 -1.565,27.855 6.923,55.554 21.624,70.565 7.912,8.076 16.994,11.983 27.002,11.64 13.179,-0.466 19.994,-5.201 26.583,-9.782 7.466,-5.188 14.523,-10.085 29.264,-8.562 12.056,1.252 20.61,6.887 29.668,12.851 12.181,8.024 24.777,16.32 48.228,16.569 5.297,0.057 8.056,-3.644 8.429,-7.338 0.45,-4.433 -2.396,-9.548 -9.769,-10.979 -8.324,-1.612 -15.027,-6.765 -18.876,-14.505 -3.775,-7.599 -4.252,-16.944 -1.27,-23.477 l -51.904,-7.795 -13.025,-1.956 -25.684,-3.858 -6.021,-0.904 -27.187,-4.083 -2.034,-0.306 -1.527,-0.23 -0.913,6.116 -14.162,-2.112 c -6.695,-11.262 -2.489,-28.651 5.755,-38.203 l 14.103,2.103 -0.637,4.27 1.523,0.269 2.025,0.354 25.723,4.496 1.549,0.271 c 0.526,-1.276 1.879,-2.12 3.327,-1.892 1.483,0.229 2.554,1.484 2.613,2.929 l 1.525,0.269 23.734,4.147 1.522,0.266 0.474,-3.367 10.026,1.101 -0.564,4.003 1.523,0.266 1.896,0.332 16.346,2.857 10.717,1.874 0.576,-4.14 1.53,0.212 -0.583,4.193 9.115,1.594 0.562,-3.974 1.529,0.218 -0.567,4.022 8.218,1.436 0.677,-3.864 1.52,0.265 -0.676,3.867 7.164,1.251 0.618,-3.804 1.524,0.247 -0.619,3.824 6.417,1.121 0.662,-3.894 1.524,0.26 -0.664,3.899 6.827,1.195 0.622,-3.316 1.519,0.285 -0.619,3.296 6.411,1.121 0.606,-3.718 1.525,0.248 -0.61,3.736 6.869,1.201 0.523,-3.159 1.524,0.254 -0.526,3.171 6.904,1.205 0.532,-3.212 1.524,0.253 -0.534,3.226 6.346,1.109 0.454,-3.374 1.529,0.205 -0.462,3.434 6.432,1.126 0.468,-3.273 1.53,0.216 -0.475,3.324 7.886,1.378 0.526,-3.524 1.528,0.23 -0.532,3.559 6.453,1.129 0.519,-3.27 1.526,0.242 -0.521,3.293 6.171,1.08 0.502,-3.224 1.528,0.238 -0.507,3.251 7.158,1.253 0.465,-3.096 1.528,0.229 -0.47,3.133 6.599,1.152 0.457,-2.925 1.527,0.238 -0.464,2.953 7.005,1.226 0.432,-2.868 1.528,0.229 -0.438,2.904 10.213,1.785 z m 27.905,4.878 0.381,-2.055 -1.518,-0.281 -0.385,2.071 -10.797,-1.889 0.556,-2.835 24.355,4.602 -0.453,2.509 -12.139,-2.122 z m -26.382,-4.612 0.547,-3.038 12.554,2.374 -0.559,2.856 -12.542,-2.192 z m -38.182,0.701 0.88,-5.654 7.166,1.254 -0.843,5.601 -7.203,-1.201 z m 8.729,1.457 0.841,-5.592 6.588,1.151 -0.866,5.538 -6.563,-1.097 z m -69.531,-2.561 -0.984,6.035 -6.976,-1.047 1.144,-6.091 6.816,1.103 z m 50.197,8.126 -0.867,5.466 -6.281,-0.943 0.827,-5.547 6.321,1.024 z m 7.751,1.255 -0.839,5.38 -6.25,-0.939 0.865,-5.448 6.224,1.007 z m -15.596,-2.524 -0.829,5.563 -7.783,-1.169 0.81,-5.658 7.802,1.264 z m 24.375,3.943 -0.796,5.286 -7.295,-1.096 0.837,-5.364 7.254,1.174 z m -41.535,-6.723 -0.777,5.774 -7.045,-1.059 0.964,-5.824 6.858,1.109 z m 7.832,1.268 -0.811,5.676 -6.27,-0.941 0.772,-5.755 6.309,1.02 z m -32.482,0.92 0.983,-6.017 6.847,1.108 -0.983,5.938 -6.847,-1.029 z m 74.227,5.839 -0.813,5.187 -6.497,-0.975 0.793,-5.268 6.517,1.056 z m -57.959,-9.384 -0.969,5.843 -6.923,-1.04 0.98,-5.92 6.912,1.117 z m 133.226,21.567 -0.78,4.314 -13.682,-2.055 0.805,-4.47 13.657,2.211 z m 15.907,2.574 -0.73,4.136 -14.427,-2.167 0.777,-4.297 14.38,2.328 z m 14.784,2.392 -0.813,3.953 -13.173,-1.979 0.728,-4.12 13.258,2.146 z m -97.325,-15.752 -0.77,5.093 -7.147,-1.073 0.81,-5.172 7.107,1.152 z m 112.855,18.267 -0.639,3.796 -14.175,-2.129 0.808,-3.934 14.006,2.267 z m 16.28,2.635 -0.338,3.652 -15.052,-2.261 0.636,-3.779 14.754,2.388 z m -103.946,-16.824 -0.935,4.775 -12.289,-1.847 0.886,-4.926 12.338,1.998 z m -13.863,-2.247 -0.89,4.945 -9.679,-1.453 0.766,-5.077 9.803,1.585 z m -103.07,-16.681 -1.146,6.107 -6.466,-0.971 1.055,-6.198 6.557,1.062 z m 143.196,23.178 -0.81,4.488 -12.278,-1.845 0.855,-4.624 12.233,1.981 z m -13.757,-2.227 -0.859,4.641 -11.052,-1.661 0.93,-4.758 10.981,1.778 z m -68.259,-18.262 6.201,1.035 -0.853,5.478 -6.221,-1.006 0.873,-5.507 z m 16.46,2.75 6.554,1.095 -0.845,5.393 -6.525,-1.056 0.816,-5.432 z m 8.079,1.35 7.061,1.18 -0.808,5.354 -7.096,-1.149 0.843,-5.385 z m -16.813,-2.81 7.212,1.205 -0.82,5.439 -7.245,-1.173 0.853,-5.471 z m 25.399,4.244 9.986,1.67 -0.949,5.269 -9.845,-1.594 0.808,-5.345 z m -41.029,-6.858 6.379,1.068 -0.874,5.516 -6.335,-1.025 0.83,-5.559 z m -25.406,-4.244 6.63,1.108 -0.761,5.668 -6.811,-1.104 0.942,-5.672 z m 133.209,22.264 14.343,2.397 -0.867,4.907 -14.376,-2.328 0.9,-4.976 z m 46.105,7.706 14.276,2.385 -0.438,4.734 -14.639,-2.369 0.801,-4.75 z m -163.272,-27.291 7.84,1.309 -0.831,5.569 -7.811,-1.264 0.802,-5.614 z m 147.979,24.734 13.767,2.301 -0.802,4.759 -13.95,-2.259 0.985,-4.801 z m -45.981,-7.684 13.644,2.279 -0.902,4.986 -13.655,-2.211 0.913,-5.054 z m -40.096,-6.703 12.431,2.079 -1.013,5.184 -12.363,-2 0.945,-5.263 z m 13.955,2.333 10.902,1.822 -0.953,5.129 -10.963,-1.775 1.014,-5.176 z m 12.423,2.075 12.192,2.039 -0.914,5.063 -12.225,-1.977 0.947,-5.125 z m 44.755,7.482 13.421,2.242 -0.989,4.809 -13.299,-2.152 0.867,-4.899 z m -140.924,-23.555 6.362,1.064 -0.801,5.62 -6.322,-1.023 0.761,-5.661 z m -108.621,-18.153 1.897,0.316 16.34,2.73 10.77,1.801 -0.842,6.066 -10.805,-1.749 -16.337,-2.643 -1.899,-0.309 -1.525,-0.246 0.877,-6.222 1.524,0.256 z m 1.162,-8.257 1.895,0.332 16.341,2.856 10.726,1.875 -0.903,6.511 -10.765,-1.802 -16.344,-2.731 -1.896,-0.316 -1.525,-0.255 0.949,-6.735 1.522,0.265 z m -13.733,14.142 -1.002,7.123 -1.53,-0.23 -24.527,-3.683 -1.791,-0.27 c 0.501,-0.462 0.86,-1.084 0.97,-1.793 l 0.858,-5.522 1.526,0.247 23.971,3.88 1.525,0.248 z m -61.068,-18.194 2.029,0.339 25.625,4.283 1.524,0.254 -0.998,6.43 -1.525,-0.247 -25.605,-4.144 -2.031,-0.329 -1.526,-0.248 0.982,-6.593 1.525,0.255 z m 1.312,-8.794 2.025,0.355 25.647,4.482 1.524,0.267 -1.094,7.039 -1.523,-0.253 -25.635,-4.285 -2.028,-0.34 -1.524,-0.255 1.084,-7.276 1.524,0.266 z m 142.674,80.111 c -7.356,-1.426 -13.285,-5.99 -16.696,-12.847 -3.457,-6.956 -3.89,-15.478 -1.077,-21.206 l -1.321,-0.649 5.801,0.871 c -0.83,10.709 5.887,23.756 21.176,26.719 14.017,2.719 13.283,19.144 4.094,23.017 0.128,-0.527 0.227,-1.055 0.28,-1.58 0.572,-5.644 -3.02,-12.534 -12.257,-14.325 M 166.301,198.367 c -16.161,6.757 -31.166,9.786 -40.179,9.657 -19.343,-0.273 -20.348,-30.005 -47.906,-32.837 -11.007,-1.133 -20.514,0.877 -28.607,4.998 4.512,-1.232 9.264,-1.857 14.249,-1.857 2.142,0 4.33,0.115 6.557,0.343 16.045,1.649 24.223,11.933 31.436,21.004 5.345,6.72 9.961,12.527 16.651,12.989 8.943,0.625 23.696,-2.943 39.476,-9.542 8.696,-3.633 17.266,-1.476 23.524,5.919 3.676,4.347 5.833,9.8 5.943,14.202 14.444,2.57 2.001,-34.552 -21.144,-24.876" /></g></g></svg>