<?xml version="1.0" encoding="UTF-8" standalone="no"?>
<svg
   xmlns:dc="http://purl.org/dc/elements/1.1/"
   xmlns:cc="http://creativecommons.org/ns#"
   xmlns:rdf="http://www.w3.org/1999/02/22-rdf-syntax-ns#"
   xmlns:svg="http://www.w3.org/2000/svg"
   xmlns="http://www.w3.org/2000/svg"
   xmlns:xlink="http://www.w3.org/1999/xlink"
   xmlns:sodipodi="http://sodipodi.sourceforge.net/DTD/sodipodi-0.dtd"
   xmlns:inkscape="http://www.inkscape.org/namespaces/inkscape"
   id="svg2"
   viewBox="0 0 2198.5857 1225.2646"
   version="1.1"
   inkscape:version="0.91 r13725"
   sodipodi:docname="3igual4.svg"
   width="620.48975mm"
   height="345.79688mm">
  <defs
     id="defs9">
    <linearGradient
       inkscape:collect="always"
       id="linearGradient4201">
      <stop
         style="stop-color:#ffffff;stop-opacity:0"
         offset="0"
         id="stop4203" />
      <stop
         style="stop-color:#00a900;stop-opacity:1"
         offset="1"
         id="stop4205" />
    </linearGradient>
    <radialGradient
       inkscape:collect="always"
       xlink:href="#linearGradient4201"
       id="radialGradient4207"
       cx="912.01605"
       cy="495.95316"
       fx="912.01605"
       fy="495.95316"
       r="912.01611"
       gradientTransform="matrix(1.205344,0,0,0.6717341,-4.8142815e-5,279.48368)"
       gradientUnits="userSpaceOnUse" />
  </defs>
  <sodipodi:namedview
     pagecolor="#ffffff"
     bordercolor="#666666"
     borderopacity="1"
     objecttolerance="10"
     gridtolerance="10"
     guidetolerance="10"
     inkscape:pageopacity="0"
     inkscape:pageshadow="2"
     inkscape:window-width="1600"
     inkscape:window-height="849"
     id="namedview7"
     showgrid="false"
     units="mm"
     fit-margin-top="0"
     fit-margin-left="0"
     fit-margin-bottom="0"
     fit-margin-right="0"
     inkscape:zoom="0.30169225"
     inkscape:cx="1219.2569"
     inkscape:cy="688.04174"
     inkscape:window-x="0"
     inkscape:window-y="0"
     inkscape:window-maximized="1"
     inkscape:current-layer="svg2" />
  <metadata
     id="metadata5">
    <rdf:RDF>
      <cc:Work>
        <dc:format>image/svg+xml</dc:format>
        <dc:type
           rdf:resource="http://purl.org/dc/dcmitype/StillImage" />
        <cc:license
           rdf:resource="http://creativecommons.org/publicdomain/zero/1.0/" />
        <dc:publisher>
          <cc:Agent
             rdf:about="http://openclipart.org/">
            <dc:title>Openclipart</dc:title>
          </cc:Agent>
        </dc:publisher>
        <dc:title></dc:title>
        <dc:date>2013-11-09T18:06:19</dc:date>
        <dc:description>From a 60s ad.</dc:description>
        <dc:source>https://openclipart.org/detail/188548/people-silhouettes---60s-crowd-by-iggyoblomov-188548</dc:source>
        <dc:creator>
          <cc:Agent>
            <dc:title>IggyOblomov</dc:title>
          </cc:Agent>
        </dc:creator>
        <dc:subject>
          <rdf:Bag>
            <rdf:li>1960s</rdf:li>
            <rdf:li>60s</rdf:li>
            <rdf:li>crowd</rdf:li>
            <rdf:li>group</rdf:li>
            <rdf:li>party</rdf:li>
            <rdf:li>people</rdf:li>
            <rdf:li>silhouette</rdf:li>
            <rdf:li>silhouettes</rdf:li>
          </rdf:Bag>
        </dc:subject>
      </cc:Work>
      <cc:License
         rdf:about="http://creativecommons.org/publicdomain/zero/1.0/">
        <cc:permits
           rdf:resource="http://creativecommons.org/ns#Reproduction" />
        <cc:permits
           rdf:resource="http://creativecommons.org/ns#Distribution" />
        <cc:permits
           rdf:resource="http://creativecommons.org/ns#DerivativeWorks" />
      </cc:License>
    </rdf:RDF>
  </metadata>
  <rect
     style="opacity:1;fill:url(#radialGradient4207);fill-opacity:1;stroke:none;stroke-width:63.66968918;stroke-linejoin:miter;stroke-miterlimit:4;stroke-dasharray:none;stroke-opacity:1"
     id="rect4177"
     width="2198.5859"
     height="1225.2646"
     x="-0.00012207033"
     y="0"
     rx="5212.3223"
     ry="0" />
  <path
     style="opacity:1;fill:#fbc10a;fill-opacity:1;stroke:#d40b1a;stroke-width:10.3960638;stroke-miterlimit:4;stroke-dasharray:none;stroke-opacity:1"
     inkscape:transform-center-x="56.531219"
     inkscape:transform-center-y="57.046299"
     d="m 442.25143,228.559 c 43.36705,-20.77602 435.76791,150.54656 483.65072,140.83622 47.88283,-9.71036 123.49165,-165.73269 174.06845,-164.83192 50.5767,0.90076 166.3408,175.82123 218.4046,183.26685 52.0638,7.44563 306.9115,-135.34594 344.8897,-109.07315 37.9781,26.27279 -161.6357,134.10302 -133.5904,162.17287 28.0453,28.06984 452.7118,16.58539 458.5058,52.60202 5.794,36.01663 -491.9241,183.60673 -502.4231,217.70857 -10.499,34.10182 486.9628,224.91467 465.2677,258.32326 -21.6951,33.40858 -471.1488,-80.30229 -504.4252,-53.95289 -33.2765,26.3493 28.3441,133.35497 -17.8389,150.85147 -46.183,17.4965 -303.4949,-88.42408 -352.3378,-89.35178 -48.8428,-0.9277 -153.09683,136.32398 -203.0189,123.07868 -49.92207,-13.2453 -10.38895,-151.53127 -48.43896,-177.65587 -38.05002,-26.1245 -541.48752,97.54807 -560.5013,65.68139 C 245.45006,956.34803 632.2679,764.60192 620.76456,729.8266 609.26123,695.05127 181.73267,587.33951 183.82746,550.97014 185.92225,514.60077 578.76934,479.09889 609.52255,452.05972 640.27577,425.02056 398.88439,249.33502 442.25143,228.559 Z"
     id="path4174"
     inkscape:connector-curvature="0"
     sodipodi:nodetypes="sssssssssssssssssss" />
  <path
     d="m 790.50672,445.78195 c -6.8709,-0.1609 -12.07034,3.1133 -15.33594,9.6582 -2.0764,4.1615 -2.25791,5.52519 -1.66211,12.40039 0.9838,11.3505 2.0535,14.4989 6.9961,20.5664 3.6539,4.4856 5.18756,5.59796 8.48046,6.1543 4.5612,0.7706 5.3337,3.00445 2.0625,5.96485 -1.0764,0.974 -3.33723,6.10569 -5.02343,11.40429 -1.6862,5.2988 -3.97248,11.88477 -5.08008,14.63477 -2.7971,6.945 -10.33295,22.41725 -10.93945,22.46095 -0.275,0.0198 -1.99676,-4.35099 -3.82422,-9.7129 -3.1029,-9.103 -8.10982,-20.19667 -10.35742,-22.94727 -0.99901,-1.2221 -4.00125,-2.33415 -11.56055,-4.28125 -3.2357,-0.8334 -4.38625,-1.68143 -4.86328,-3.58203 -0.6851,-2.7295 -3.12228,-4.4375 -6.33008,-4.4375 -2.89195,0 -2.59658,-2.4389 0.82422,-6.8086 5.698,-7.279 4.94544,-19.49451 -1.84766,-29.97851 -4.298,-6.6323 -9.59052,-9.26822 -16.66992,-8.30273 -5.8148,0.793 -8.64362,2.38919 -13.66992,7.71679 -4.5463,4.819 -6.83844,11.75783 -7.44922,22.54883 -0.4698,8.3 -0.37957,8.7884 2.08203,11.25 1.7002,1.70021 3.69194,2.58447 5.86914,2.60547 1.8125,0.0175 4.16873,0.69249 5.23633,1.5 1.0676,0.80751 3.4301,1.46875 5.25,1.46875 4.59307,0 4.35589,2.5714 -0.69141,7.5 -3.4358,3.3549 -4,4.5094 -4,8.1875 0,3.0195 -0.89491,5.73725 -3.03711,9.21875 -3.217,5.228 -7.0093,18.54476 -9.5664,33.59376 -0.8411,4.95 -2.00085,10.62437 -2.57813,12.60937 l -1.05078,3.60938 -5.97266,-1.85938 c -7.1703,-2.23156 -10.46442,-2.31873 -13.79492,-0.36132 -1.375,0.80809 -3.2875,1.75362 -4.25,2.10156 -2.1942,0.7931 -2.19863,1.35191 -0.0195,2.94531 1.5624,1.1425 1.3672,1.44117 -2,3.04687 -2.0522,0.97871 -3.73047,2.10467 -3.73047,2.50391 0,0.3992 1.38397,1.89055 3.07617,3.31445 3.469,2.9192 7.99853,3.33375 11.92383,1.08985 2.7948,-1.59763 7,-1.9705 7,-0.6211 0,0.483 -1.06132,3.69869 -2.35742,7.14649 -1.5904,4.2307 -3.16912,6.69353 -4.85742,7.57812 -1.7521,0.918 -2.87159,2.74692 -3.73828,6.10352 -0.6806,2.6358 -1.60355,5.91797 -2.04883,7.29297 -2.3008,7.105 -5.23544,20.94028 -4.72461,22.27148 0.3592,0.9363 2.5345,1.78967 5.6543,2.21875 4.0341,0.5549 5.07226,1.08006 5.07226,2.56446 0,1.724 -1.3944,7.82793 -7.1582,31.33593 -2.5655,10.4632 -2.88127,9.94686 8.30273,13.53516 4.0456,1.298 7.71138,2.67461 8.14649,3.05859 1.1895,1.05 -4.0016,47.26313 -6.4043,57.01563 -2.783,11.294 -6.05202,17.05727 -13.60742,23.98047 -3.4535,3.1645 -6.2793,6.26383 -6.2793,6.88672 0,1.4794 7.67041,1.47689 12.09961,-0.004 1.8696,-0.6251 5.74352,-2.8751 8.60742,-5 2.8639,-2.1249 5.42153,-3.86328 5.6836,-3.86328 0.26207,0 0.61894,1.2375 0.79297,2.75 0.4809,4.179 2.83529,3.28896 4.52539,-1.71094 1.26943,-3.7554 1.3104,-5.28956 0.2539,-9.69336 -1.7164,-7.155 -0.91129,-12.1697 5.03321,-31.3457 2.8132,-9.075 6.17691,-20.55 7.47461,-25.5 2.692,-10.27 0.83629,-9.35687 16.52929,-8.13867 14.0276,1.089 13.43182,0.68039 18.41992,12.65039 2.4041,5.768 7.04857,16.56328 10.32227,23.98828 3.2737,7.425 6.91063,16.07676 8.08203,19.22656 2.11433,5.6851 2.11524,5.73466 0.15234,6.78516 -2.83909,1.5194 -2.43518,3.63258 0.91602,4.80078 2.85982,0.9969 2.88467,1.07865 2.38672,7.34765 -0.6326,7.9644 1.00233,14.47736 3.86133,15.38477 3.04427,0.9662 6.66969,-1.37683 8.05469,-5.20703 0.66209,-1.8312 1.9011,-3.52025 2.7539,-3.75391 1.95,-0.5344 17.28002,-2.00021 18.32422,-1.75195 1.327,0.3156 10.15941,-2.07041 11.47461,-3.09961 0.6875,-0.538 1.25,-2.72287 1.25,-4.85547 0,-3.13089 0.36406,-3.87695 1.88477,-3.87695 2.72949,0 3.15435,-2.387 4.09374,-23 0.4637,-10.175 1.42482,-24.0261 2.13672,-30.7793 1.0915,-10.3528 1.53685,-12.18358 2.83985,-11.67969 2.963,1.1458 11.34982,2.45899 15.70312,2.45899 5.20781,0 5.56109,0.604 7.29689,12.5 0.6421,4.4 2.5285,13.625 4.1914,20.5 5.9902,24.766 6.02707,25.148 3.69727,37.5 -1.6156,8.5652 -1.83408,11.6087 -0.98438,13.75 l 0.004,0 c 1.1897,2.9986 3.29439,3.4242 6.93359,1.40429 2.5893,-1.437 4.85557,-5.26174 6.60547,-11.15234 1.1778,-3.96469 1.23276,-4.00027 6.64455,-4.33008 3.0012,-0.18285 5.8395,-0.70183 6.3066,-1.15234 1.4616,-1.4096 -0.4246,-5.18394 -5.0683,-10.14844 -2.6582,-2.8419 -4.80596,-6.26179 -5.29496,-8.42969 -0.8571,-3.8 0.84009,-16.5927 5.28516,-39.8457 l 2.2754,-11.9043 6.7969,-1.86132 c 3.73829,-1.0241 8.55328,-2.75872 10.69918,-3.85352 l 3.9023,-1.99023 -0.5429,-9.74219 c -1.0357,-18.59 -4.3633,-56.77534 -5.4668,-62.74414 -0.6101,-3.3 -2.0088,-9.6 -3.1094,-14 -1.1006,-4.4 -2.19719,-8.9 -2.43749,-10 -0.3557,-1.6282 0.6674,-2.49536 5.50979,-4.66016 3.2715,-1.46251 6.2086,-2.40069 6.5253,-2.08398 0.3167,0.3167 0.5762,1.79611 0.5762,3.28711 0,3.0605 1.8953,4.98987 6.3438,6.45508 3.434,1.13099 3.7207,1.942 5.6523,16 1.7607,12.81599 4.8603,30.46065 5.5449,31.56835 0.3198,0.51745 1.6529,0.67059 2.9629,0.3418 1.3101,-0.32857 2.8246,-0.3244 3.3653,0.01 1.1983,0.741 -3.3161,18.29159 -8.9532,34.80859 -2.2013,6.4498 -4.2101,13.4248 -4.4648,15.5 -1.8586,15.143 -8.7336,53.69063 -11.0723,62.08203 -0.5043,1.8095 -0.1825,2.43027 1.4883,2.86719 3.8649,1.0109 2.2426,3.2435 -6.6094,9.0957 -4.8077,3.1785 -8.89159,6.55539 -9.07419,7.50391 -0.508,2.64008 9.83009,2.29626 19.51369,-0.64844 4.2913,-1.3048 10.0527,-2.76731 12.8027,-3.25 4.5998,-0.8074 5.0212,-1.11705 5.2735,-3.87695 0.5003,-5.4734 1.2471,-7.5 2.7656,-7.5 2.138,0 2.9296,-2.597 5.9336,-19.5 1.4662,-8.25 3.0837,-16.03348 3.5957,-17.29688 0.5119,-1.2634 0.9316,-3.21283 0.9316,-4.33203 0,-4.492 10.0276,-29.91474 11.7695,-29.83984 1.785,0.076 5.5166,6.48308 16.3516,28.08008 4.9765,9.919 7.0093,15.14315 7.4922,19.25195 0.4821,4.1019 1.3426,6.31912 3.1602,8.13672 1.3742,1.3742 2.8882,2.49805 3.3632,2.49805 0.475,0 0.8633,0.675 0.8633,1.5 0,0.82499 -0.4851,1.5 -1.0781,1.5 -0.6371,0 -0.9439,1.52882 -0.75,3.73632 0.3083,3.5098 0.025,3.9336 -4.6719,6.9961 -6.8209,4.4469 -7.6479,5.22152 -6.8867,6.45312 1.048,1.6965 12.9832,0.31941 21.8867,-2.52539 4.3997,-1.4059 9.9424,-3.05659 12.3164,-3.66797 4.20783,-1.0837 4.29613,-1.19273 3.55463,-4.30273 -0.4183,-1.7545 -0.6646,-4.82823 -0.5488,-6.83203 0.2514,-4.349 -5.46463,-27.12138 -9.62693,-38.35938 -1.6304,-4.401 -6.7803,-15.8764 -11.4453,-25.5 -4.6647,-9.624 -9.8611,-20.52215 -11.5488,-24.21875 l -3.0703,-6.7207 2.5078,-7.30859 c 2.3184,-6.76131 2.8522,-7.4934 7.1328,-9.7793 3.3342,-1.7805 4.8535,-3.30891 5.4395,-5.4707 0.4473,-1.65 1.3355,-12.67501 1.9746,-24.5 l 1.1621,-21.5 5.7187,-5.5 c 3.1449,-3.025 6.2476,-6.54051 6.8946,-7.8125 4.192,-8.241 -2.859,-49.07255 -10.6016,-61.39455 -3.283,-5.225 -11.6506,-11.21599 -23.6016,-16.90039 -11.7339,-5.581 -12.819,-7.29063 -8.1562,-12.83203 2.9553,-3.5121 4.5751,-12.21503 2.5117,-13.49023 -0.6131,-0.3789 -1.1133,-2.45298 -1.1133,-4.60938 0,-8.63159 -5.585,-15.91192 -13.3164,-17.36132 -4.892,-0.9171 -13.8192,0.93233 -17.1504,3.55273 -4.9001,3.855 -6.7394,9.18662 -6.8144,19.76562 -0.082,11.4563 1.3642,17.21488 5.0488,20.11328 2.6768,2.1056 2.6869,2.16182 0.7246,3.63282 -1.0964,0.8219 -4.0172,2.53494 -6.4922,3.80664 -5.886,3.025 -7.154,4.54004 -11.5566,13.81054 l -3.6934,7.7754 -2.9473,-4.00977 c -3.008,-4.0897 -3.4827,-4.30467 -15.63669,-7.07227 -6.54089,-1.4894 -9.79989,-4.3252 -10.48629,-9.125 -0.5607,-3.9208 0.9968,-6.03639 6.4414,-8.74609 3.106,-1.5457 6.87889,-7.82031 6.87889,-11.44141 0,-4.088 -2.7269,-13.44117 -5.21479,-17.89257 -1.2577,-2.2502 -4.0158,-5.48049 -6.1309,-7.17969 -5.30696,-4.26298 -12.9493,-4.33565 -20.1953,-0.18945 -9.9192,5.676 -14.15099,12.60015 -13.08399,21.40625 0.5631,4.6474 0.64832,6.10236 0.54492,9.38476 -0.061,1.9368 6.94194,8.60242 11.21095,10.66992 2.5512,1.2356 2.86914,1.90497 2.86914,6.07617 0,5.545 -1.69,7.50024 -12.5,14.46094 l -7.00001,4.50781 -1.1388,-8.70326 c -1.4311,-10.9518 -2.1874,-12.81258 -7.7539,-19.08008 -2.487,-2.8003 -5.01524,-6.01418 -5.61914,-7.14258 -0.6039,-1.1283 -2.40521,-2.31307 -4.00391,-2.63281 -3.5846,-0.716 -5.50556,-5.57404 -4.63086,-11.71484 1.9666,-13.80474 1.96979,-13.28954 -0.0703,-14.74414 -1.0698,-0.7629 -2.50495,-3.63672 -3.18945,-6.38672 -2.024,-8.1295 -6.5777,-11.57215 -15.5918,-11.7832 z m 39.18555,112.59961 c 0.72304,0.0115 0.99617,3.54464 0.88086,10.68165 -0.11761,7.2802 -0.60923,9.5508 -3.41993,15.8164 -3.4217,7.628 -3.59003,11.74508 -0.58593,14.23828 1.95226,1.61989 1.80117,6.61925 -0.48829,16.31055 -1.0571,4.47471 -2.11119,9.03497 -2.34375,10.13477 -0.6629,3.13499 -1.43004,0.353 -3.31054,-12 -2.0492,-13.46001 -1.45871,-23.19644 2.02929,-33.39844 1.3914,-4.069 3.50958,-11.02428 4.70508,-15.45508 1.13733,-4.21509 1.97083,-6.33709 2.53321,-6.32813 z m 57.37309,6.33399 c 0.394,-0.10573 0.9393,2.05781 1.25,5.05078 0.4093,3.9421 0.2143,6.17123 -0.6055,6.94727 -0.664,0.6285 -2.1727,1.4307 -3.3516,1.7832 l -2.1425,0.64062 2.0253,-6.7832 c 1.1141,-3.7309 2.3508,-7.14543 2.7481,-7.58789 0.025,-0.0277 0.05,-0.0437 0.076,-0.0508 z m -133.82622,1.65234 c 0.55392,0.004 1.10309,1.8763 2.28516,6.49024 1.51489,5.913 1.49361,6.38072 -0.45899,10.79492 -1.1225,2.5378 -3.6531,7.26952 -5.625,10.51562 -1.9719,3.2461 -4.0035,5.90235 -4.51367,5.90235 -0.51018,0 -0.92773,-2.9817 -0.92773,-6.625 0,-5.4044 0.6569,-8.1204 3.5625,-14.75 1.9587,-4.4691 4.00025,-9.19531 4.53711,-10.50391 0.47422,-1.1559 0.80827,-1.82656 1.14062,-1.82422 z m -65.79101,26.875 c 0.0476,0.009 0.0903,0.0356 0.13085,0.0762 0.9524,0.952 -3.13221,14.41513 -4.25781,14.03321 -0.8771,-0.2976 -0.78693,-1.7286 0.35547,-5.5918 1.58016,-5.34375 3.0581,-8.65895 3.77149,-8.51758 z m 67.48437,21.39844 c 0.10306,-0.0146 0.18527,-0.004 0.24219,0.0312 0.45534,0.2815 0.82812,3.08332 0.82812,6.22852 0,6.9907 1.58475,9.51401 7.84375,12.47851 l 4.65625,2.20508 0.6875,9.49023 c 0.3792,5.219 1.16234,16.01524 1.74024,23.99024 0.5779,7.975 1.76798,18.325 2.64258,23 0.8747,4.675 1.9734,14.8 2.4414,22.5 1.395,22.9489 1.32208,22.58046 5.05078,25.69336 l 3.3125,2.76562 -4.1875,3.86719 c -2.3035,2.1266 -4.1875,4.76603 -4.1875,5.86523 0,1.0992 -0.7875,2.67537 -1.75,3.50196 l -0.002,0.002 c -2.1,1.80348 -4.25,3.07874 -4.25,2.52148 0,-3.38899 -8.24463,-39.95163 -11.17383,-49.55273 -0.55986,-1.835 -1.20118,-6.25637 -1.42578,-9.82617 -0.2246,-3.57 -1.51308,-10.39396 -2.86328,-15.16406 -3.5045,-12.381 -5.34637,-23.89083 -6.02734,-37.67383 -0.32604,-6.6 -0.80359,-14.97985 -1.0625,-18.62305 -0.46631,-6.5615 -0.43661,-6.65832 3.21289,-10.20312 1.77318,-1.72218 3.55007,-2.9951 4.27148,-3.09766 z m 65.14453,21.70312 c 0.35844,0.0127 0.58257,0.0435 0.63477,0.0957 0.3484,0.348 -2.43914,18.175 -4.71094,30.125 -0.5228,2.75 -1.21918,7.5875 -1.54688,10.75 -0.3276,3.1625 -0.95663,5.75 -1.39843,5.75 -0.4418,0 -1.33794,-5.9625 -1.99024,-13.25 -0.6523,-7.287 -1.6087,-15.40923 -2.125,-18.04883 -0.5163,-2.6395 -0.9375,-6.96282 -0.9375,-9.60742 l 0,-4.8086 6.16406,-0.64453 c 2.54295,-0.26579 4.83483,-0.39934 5.91016,-0.36133 z m -40.82422,132.72461 4.25,0.006 -3,2.45899 c -3.848,3.1542 -5.5,3.16375 -5.5,0.0312 0,-2.27526 0.382,-2.5011 4.25,-2.4961 z"
     id="path3004"
     inkscape:connector-curvature="0" />
  <path
     d="m 1312.4271,445.14627 c -7.6,0 -13.0185,2.57347 -21.2852,10.10547 -3.6782,3.351 -5.9951,11.58052 -4.4824,15.91992 0.5771,1.6556 0.7655,4.13677 0.4199,5.51367 -0.4691,1.8689 9e-4,3.13172 1.8516,4.98242 1.3634,1.3634 3.0098,2.47852 3.6582,2.47852 0.6484,0 2.9188,1.6875 5.0449,3.75 3.1508,3.0565 3.8645,4.45183 3.8652,7.54883 0,5.1168 -2.0894,8.82525 -6.6797,11.84765 -2.1008,1.3832 -5.4824,3.59687 -7.5156,4.91797 -7.3596,4.782 -9.9284,14.28863 -7.875,29.14063 2.5091,18.14701 1.9742,23.08953 -3.3672,31.13673 -3.8054,5.7337 -3.8413,7.94688 -0.2109,12.89648 l 2.0078,2.73633 -4.1973,19.26367 c -2.3084,10.595 -4.7216,22.86172 -5.3613,27.26172 l -1.1621,8 -1.7773,-9.5 c -2.6624,-14.242 -2.4972,-28.403 0.4668,-40 1.3353,-5.225 3.1206,-12.875 3.9668,-17 0.846,-4.125 2.4769,-12.00417 3.623,-17.50977 2.3096,-11.095 2.7019,-24.47712 0.959,-32.69141 -1.4013,-6.6044 -5.0491,-13.90287 -7.7676,-15.54297 -1.1339,-0.6841 -2.9668,-3.01866 -4.0742,-5.18946 -1.1075,-2.1707 -3.2554,-4.542 -4.7734,-5.26953 -3.8281,-1.835 -5.7437,-7.82008 -4.3165,-13.48828 1.6647,-6.6108 1.3345,-11.62605 -0.8906,-13.53125 -1.0705,-0.9167 -2.4371,-3.4884 -3.0371,-5.7168 -1.2628,-4.69 -3.9522,-7.58484 -9.3457,-10.05664 -4.602,-2.1089 -9.6487,-1.3049 -15.6699,2.4961 -4.8038,3.033 -5.5203,4.32579 -7.4063,13.37109 -1.367,6.5566 -1.3455,7.75019 0.2481,14.02539 2.777,10.9366 10.3878,20.10352 16.6914,20.10352 2.0762,0 1.8307,1.5213 -1.0332,6.4082 -1.3744,2.3453 -3.3523,7.60013 -4.3965,11.67773 -1.404,5.48063 -12.9194,31.0221 -15.5488,34.56447 l -7.5821,27.08008 c -0.1799,2.05003 -0.6863,5.19402 -1.6015,10.51562 -1.2535,7.289 -2.9872,18.99131 -3.8516,26.00391 -2.045,16.5958 -1.8436,17.0297 11.1914,24.2207 0.2746,0.152 3.1031,27.83378 4.3184,42.25977 0.5203,6.17601 1.378,14.2765 1.9062,18 0.5283,3.72401 1.4885,13.74453 2.1328,22.26953 0.9728,12.8698 1.5321,16.04929 3.3008,18.74219 1.1715,1.7837 2.4684,3.246 2.8809,3.25 2.1084,0.0192 0.2754,4.46942 -3.25,7.89062 -2.6052,2.5282 -4,4.77154 -4,6.43164 0,3.4231 -5.1179,6.89654 -14.3067,9.71094 -3.0112,0.9224 -3.7427,1.60361 -3.5,3.25391 0.435,2.95453 4.7137,3.85421 15.0567,3.16601 10.0176,-0.6666 11.1019,0.29639 4,3.55469 -8.634,3.9612 -9.25,4.32805 -9.25,5.50195 0,0.63963 0.212,1.37279 0.4707,1.63281 0.652,0.65201 23.2083,0.19933 31.3242,-0.6289 8.8097,-0.899 10.2051,-1.73681 10.2051,-6.13281 0,-2.3667 0.6802,-4.10935 2.0371,-5.21485 1.9,-1.548 2.0585,-2.94516 2.334,-20.66015 0.1625,-10.45 0.8393,-22.15 1.5058,-26 1.2865,-7.431 0.7794,-23.54919 -0.9922,-31.49219 -3.4873,-15.635 -6.4557,-52.89431 -4.2285,-53.07617 1.4117,-0.1153 5.8848,-0.73486 9.8145,-1.35938 l 3.7226,-0.5918 -0.8476,10.75977 c -0.4658,5.918 -0.8457,15.03085 -0.8457,20.25195 l 0,9.49414 3.6972,1.21289 c 2.0341,0.6678 7.6095,1.89788 12.3907,2.73243 4.7812,0.83452 8.8202,1.64446 8.9746,1.79882 0.1543,0.1544 0.5215,2.7532 0.8164,5.7754 0.8527,8.73899 3.3338,23.52504 6.082,36.24804 2.8591,13.236 3.1987,21.66564 1.1289,27.96094 -2.2272,6.7742 -2.8013,10.55466 -2.0918,13.78516 0.5706,2.59794 1.1042,3 3.9766,3 4.0511,0 8.8169,-4.9051 10.623,-10.9336 l 1.1875,-3.96484 6.2461,0.58398 c 5.717,0.5339 6.3028,0.40555 6.9082,-1.50195 0.8432,-2.6565 -1.196,-6.52811 -6.291,-11.94141 -5.0751,-5.392 -5.9563,-10.92919 -3.6953,-23.24218 1.9567,-10.656 4.2288,-24.68161 5.2578,-32.47071 l 0.7871,-5.9707 4.5,-0.82031 c 5.703,-1.0409 16.1612,-3.56543 16.6036,-4.00782 0.4562,-0.456 -1.506,-39.33719 -2.1778,-43.15039 -0.2945,-1.672 -0.9236,-7.77289 -1.3984,-13.55859 -1.3336,-16.249 -3.9898,-38.22656 -4.9785,-41.19336 -0.6909,-2.0729 -0.5393,-2.80794 0.6738,-3.27344 0.8604,-0.32976 1.6565,-0.47856 1.7695,-0.32812 0.1131,0.1505 0.6763,4.2872 1.252,9.1914 1.1603,9.8848 2.1821,11.34614 9.4492,13.52344 2.0943,0.62747 3.8492,1.23419 3.9004,1.34961 0.1914,0.432 2.8748,27.49614 3.4414,34.71094 0.9497,12.0932 0.9061,12 5.5723,12 l 4.0683,0 -0.709,4.25 c -0.3899,2.338 -2.636,10.325 -4.9922,17.75 -4.3236,13.625 -6.5017,21.929 -8.3925,32 -0.5679,3.025 -1.9644,9.775 -3.1035,15 -1.1394,5.225 -2.5009,11.75 -3.0254,14.5 -1.4931,7.828 -3.9545,17.45278 -6.125,23.95508 -1.8962,5.6806 -1.906,6.0148 -0.2168,7.25 0.974,0.7122 2.376,1.29492 3.1152,1.29492 3.071,0 -1.1085,4.19216 -8.2344,8.25976 -7.3262,4.1819 -9.3797,7.02577 -5.7422,7.95313 4.115,1.04919 13.187,0.68359 18.75,-0.75391 3.3,-0.8527 7.7901,-2.00458 9.9766,-2.56054 4.7629,-1.2111 5.4898,-2.18113 5.5098,-7.36133 0.012,-2.9907 0.6221,-4.4621 2.4922,-6 2.4964,-2.053 3.2457,-4.46707 10.5839,-34.03906 2.151,-8.668 9.273,-28.37673 12.5274,-34.66993 l 1.5722,-3.04101 8.4082,16.85547 c 4.6249,9.2707 8.414,17.55375 8.42,18.40625 0.01,0.8525 0.4046,1.9775 0.8867,2.5 0.482,0.5224 1.8406,3.57395 3.0176,6.78125 2.9886,8.1444 4.9953,11.90892 7.3379,13.76562 1.9269,1.5272 1.9399,1.71147 0.3086,4.20117 -0.942,1.4376 -1.438,3.44904 -1.1075,4.49024 0.6046,1.9047 -1.1746,4.21956 -6.875,8.94726 -4.0449,3.35469 -2.3997,4.5964 5.3281,4.02344 7.256,-0.5379 27.0412,-6.40681 27.7403,-8.22851 0.2411,-0.6284 -0.4169,-3.89321 -1.4629,-7.25391 -1.6445,-5.2839 -1.7087,-6.303 -0.4785,-7.5332 1.2302,-1.2303 0.9931,-2.49134 -1.7539,-9.33204 -1.7472,-4.35099 -5.0921,-13.3121 -7.4336,-19.9121 -4.469,-12.596 -6.2518,-16.75801 -15.2129,-35.5 -3.0241,-6.3253 -6.3478,-13.2996 -7.3848,-15.5 -2.2337,-4.74 -1.936,-9.03622 1.2988,-18.69922 2.0883,-6.2383 2.531,-6.80777 6.42,-8.29297 2.837,-1.0835 4.5019,-2.46178 5.1933,-4.30078 1.1391,-3.029 2.8755,-17.96577 4.0703,-35.00977 l 0.793,-11.30273 4.9863,-5.19727 c 8.1948,-8.537 8.2865,-8.80027 7.752,-22.32226 -0.882,-22.307 -6.6078,-39.39768 -16.5274,-49.33009 -1.4375,-1.4394 -6.4077,-5.16766 -11.0449,-8.28516 -4.637,-3.1175 -9.4921,-6.59004 -10.789,-7.71484 -1.2968,-1.12474 -2.6907,-2.04493 -3.0977,-2.04493 -2.1432,0 -1.6908,-3.80428 1.0254,-8.61718 2.9618,-5.2478 3.8638,-9.74247 2.1641,-10.79297 -0.4715,-0.2914 -1.1225,-2.68195 -1.4454,-5.31055 -0.7978,-6.494 -3.9058,-12.47985 -8.4062,-16.18945 -3.037,-2.50333 -4.6593,-3.08789 -8.5527,-3.08789 -8.613,0 -17.177,5.42559 -20.3164,12.87109 -3.2259,7.651 -1.166,24.37691 3.7578,30.50391 3.0419,3.7852 3.0826,3.95988 1.2324,5.33398 -3.892,2.8916 -16.4993,10.53307 -16.7734,10.16797 -0.156,-0.2078 -1.0733,-2.51059 -2.0391,-5.11719 -2.1267,-5.7401 -5.145,-8.2819 -11.4258,-9.6289 -8.0892,-1.7347 -13.9893,-4.7814 -16.1601,-8.3418 -2.8819,-4.7269 -2.5511,-6.02667 2.4375,-9.54297 4.8964,-3.451 8.5488,-9.50743 8.5488,-14.17773 0,-6.44001 -3.2718,-18.01291 -5.9024,-20.87891 -4.3094,-4.6954 -7.2476,-6.18945 -12.1718,-6.18945 z m 26,103.49806 -0.2149,7.38867 c -0.1967,6.75859 -0.4171,7.46426 -2.5761,8.25976 -2.0208,0.74462 -2.254,0.61693 -1.6231,-0.88867 0.4053,-0.9672 1.5651,-4.68476 2.5762,-8.25976 l 1.8379,-6.5 z"
     id="path3004-6"
     inkscape:connector-curvature="0" />
  <text
     xml:space="preserve"
     style="font-style:normal;font-weight:normal;font-size:220.02409363px;line-height:125%;font-family:sans-serif;letter-spacing:0px;word-spacing:0px;fill:#000000;fill-opacity:1;stroke:none;stroke-width:1px;stroke-linecap:butt;stroke-linejoin:miter;stroke-opacity:1"
     x="1249.1733"
     y="552.6438"
     id="text4158"
     sodipodi:linespacing="125%"
     transform="scale(0.80965681,1.2350912)"><tspan
       sodipodi:role="line"
       id="tspan4160"
       x="1249.1733"
       y="552.6438">=</tspan></text>
  <text
     xml:space="preserve"
     style="font-style:normal;font-weight:normal;font-size:171.62103271px;line-height:125%;font-family:sans-serif;letter-spacing:0px;word-spacing:0px;fill:#000000;fill-opacity:1;stroke:none;stroke-width:8.64212608;stroke-linecap:butt;stroke-linejoin:miter;stroke-miterlimit:4;stroke-dasharray:none;stroke-opacity:1"
     x="913.22827"
     y="932.091"
     id="text4143"
     sodipodi:linespacing="125%"><tspan
       sodipodi:role="line"
       id="tspan4145"
       x="913.22827"
       y="932.091"
       style="font-style:normal;font-variant:normal;font-weight:500;font-stretch:normal;font-family:'TeX Gyre Chorus';-inkscape-font-specification:'TeX Gyre Chorus Medium';stroke:#000000;stroke-width:8.64212608;stroke-miterlimit:4;stroke-dasharray:none;stroke-opacity:1">4 x 3</tspan></text>
  <text
     xml:space="preserve"
     style="font-style:normal;font-weight:normal;font-size:80.05257416px;line-height:125%;font-family:sans-serif;letter-spacing:0px;word-spacing:0px;fill:#fbc10a;fill-opacity:1;stroke:#d40b1a;stroke-width:5.2511816;stroke-linecap:butt;stroke-linejoin:miter;stroke-miterlimit:4;stroke-dasharray:none;stroke-opacity:1"
     x="481.58618"
     y="185.93716"
     id="text4162"
     sodipodi:linespacing="125%"><tspan
       sodipodi:role="line"
       id="tspan4164"
       x="481.58618"
       y="185.93716"
       style="font-style:normal;font-variant:normal;font-weight:bold;font-stretch:normal;font-family:'Comic Sans MS';-inkscape-font-specification:'Comic Sans MS Bold';fill:#fbc10a;fill-opacity:1;stroke:#d40b1a;stroke-width:5.2511816;stroke-miterlimit:4;stroke-dasharray:none;stroke-opacity:1">¡¡TODOS NUESTROS CURSOS!!</tspan></text>
</svg>
