<?xml version="1.0" encoding="UTF-8" standalone="no"?>
<svg
   xmlns:dc="http://purl.org/dc/elements/1.1/"
   xmlns:cc="http://creativecommons.org/ns#"
   xmlns:rdf="http://www.w3.org/1999/02/22-rdf-syntax-ns#"
   xmlns:svg="http://www.w3.org/2000/svg"
   xmlns="http://www.w3.org/2000/svg"
   version="1.1"
   id="svg2"
   viewBox="0 0 27.720388 27.720399"
   height="7.8233128mm"
   width="7.8233094mm">
  <defs
     id="defs4" />
  <metadata
     id="metadata7">
    <rdf:RDF>
      <cc:Work
         rdf:about="">
        <dc:format>image/svg+xml</dc:format>
        <dc:type
           rdf:resource="http://purl.org/dc/dcmitype/StillImage" />
        <dc:title></dc:title>
      </cc:Work>
    </rdf:RDF>
  </metadata>
  <g
     transform="translate(0,-1025.9618)"
     id="layer1">
    <path
       id="path4140-3"
       d="m 14.519219,1027.2818 a 13.2,13.2 0 0 0 -13.1992189,13.2012 13.2,13.2 0 0 0 13.1992189,13.1992 13.2,13.2 0 0 0 13.201168,-13.1992 13.2,13.2 0 0 0 -13.201168,-13.2012 z m -0.19336,2.9258 c 1.29,0 2.339844,1.0498 2.339844,2.3398 0,1.29 -1.049844,2.3399 -2.339844,2.3399 -1.29,0 -2.341797,-1.0499 -2.341797,-2.3399 1e-6,-1.29 1.051797,-2.3398 2.341797,-2.3398 z m 1.919922,7.0488 0,12.0899 1.859375,0 0,1.4101 -3.509765,-0.09 -3.660157,0.09 0,-1.4101 2.070313,0 0,-9.2696 c 0,-1.17 -0.210469,-1.1699 -1.980469,-1.1699 l 0,-1.4101 5.220703,-0.2403 z"
       style="fill:#000000;fill-opacity:1;stroke:none;stroke-width:2;stroke-linejoin:round;stroke-miterlimit:10;stroke-dasharray:none;stroke-dashoffset:0;stroke-opacity:1" />
    <path
       id="path4140"
       d="M 13.199219,1025.9618 A 13.2,13.2 0 0 0 5.2744497e-8,1039.163 13.2,13.2 0 0 0 13.199219,1052.3622 13.2,13.2 0 0 0 26.400391,1039.163 13.2,13.2 0 0 0 13.199219,1025.9618 Z m -0.19336,2.9258 c 1.29,0 2.339844,1.0498 2.339844,2.3398 0,1.29 -1.049844,2.3399 -2.339844,2.3399 -1.29,0 -2.341797,-1.0499 -2.341797,-2.3399 1e-6,-1.29 1.051797,-2.3398 2.341797,-2.3398 z m 1.919922,7.0488 0,12.0899 1.859375,0 0,1.4101 -3.509765,-0.09 -3.6601569,0.09 0,-1.4101 2.0703129,0 0,-9.2696 c 0,-1.17 -0.210469,-1.1699 -1.9804689,-1.1699 l 0,-1.4101 5.2207029,-0.2403 z"
       style="fill:#ffffff;fill-opacity:1;stroke:none;stroke-width:2;stroke-linejoin:round;stroke-miterlimit:10;stroke-dasharray:none;stroke-dashoffset:0;stroke-opacity:1" />
  </g>
</svg>
