<?xml version="1.0" encoding="UTF-8" standalone="no"?>
<!-- Created with Inkscape (http://www.inkscape.org/) -->

<svg
   xmlns:dc="http://purl.org/dc/elements/1.1/"
   xmlns:cc="http://creativecommons.org/ns#"
   xmlns:rdf="http://www.w3.org/1999/02/22-rdf-syntax-ns#"
   xmlns:svg="http://www.w3.org/2000/svg"
   xmlns="http://www.w3.org/2000/svg"
   xmlns:sodipodi="http://sodipodi.sourceforge.net/DTD/sodipodi-0.dtd"
   xmlns:inkscape="http://www.inkscape.org/namespaces/inkscape"
   width="59.831112mm"
   height="59.831112mm"
   viewBox="0 0 212 212"
   id="svg2"
   version="1.1"
   inkscape:version="0.91 r13725"
   sodipodi:docname="star.svg">
  <defs
     id="defs4" />
  <sodipodi:namedview
     id="base"
     pagecolor="#ffffff"
     bordercolor="#666666"
     borderopacity="1.0"
     inkscape:pageopacity="0.0"
     inkscape:pageshadow="2"
     inkscape:zoom="0.49497475"
     inkscape:cx="-35.613407"
     inkscape:cy="345.90311"
     inkscape:document-units="px"
     inkscape:current-layer="layer1"
     showgrid="false"
     inkscape:snap-center="true"
     inkscape:object-nodes="true"
     inkscape:object-paths="true"
     inkscape:snap-global="false"
     fit-margin-top="0"
     fit-margin-left="0"
     fit-margin-right="0"
     fit-margin-bottom="0"
     inkscape:window-width="1280"
     inkscape:window-height="971"
     inkscape:window-x="0"
     inkscape:window-y="0"
     inkscape:window-maximized="1" />
  <metadata
     id="metadata7">
    <rdf:RDF>
      <cc:Work
         rdf:about="">
        <dc:format>image/svg+xml</dc:format>
        <dc:type
           rdf:resource="http://purl.org/dc/dcmitype/StillImage" />
        <dc:title></dc:title>
      </cc:Work>
    </rdf:RDF>
  </metadata>
  <g
     inkscape:label="Capa 1"
     inkscape:groupmode="layer"
     id="layer1"
     transform="translate(2.265625e-6,-850.3622)">
    <g
       id="g4144"
       transform="translate(628.14282,457.57143)">
      <circle
         r="100"
         cy="503.79077"
         cx="-517.14282"
         id="path4136"
         style="fill:none;fill-opacity:1;stroke:#000000;stroke-width:2;stroke-linejoin:round;stroke-miterlimit:10;stroke-dasharray:none;stroke-dashoffset:0;stroke-opacity:1" />
      <path
         inkscape:transform-center-y="-9.029207"
         d="m -517.14282,403.79077 c 13.28131,0 18.64445,51.74259 29.38926,59.54915 10.74481,7.80656 61.61224,-3.08212 65.71639,9.54915 4.10415,12.63128 -43.44868,33.72127 -47.55283,46.35255 -4.10415,12.63128 21.97051,57.64429 11.2257,65.45085 -10.7448,7.80656 -45.49721,-30.9017 -58.77852,-30.9017 -13.28131,0 -48.03372,38.70826 -58.77853,30.9017 -10.74481,-7.80656 15.32985,-52.81957 11.2257,-65.45085 -4.10415,-12.63128 -51.65697,-33.72127 -47.55282,-46.35255 4.10415,-12.63128 54.97158,-1.74259 65.71638,-9.54915 10.74481,-7.80656 16.10796,-59.54915 29.38927,-59.54915 z"
         inkscape:randomized="0"
         inkscape:rounded="0.2"
         inkscape:flatsided="false"
         sodipodi:arg2="-0.9424778"
         sodipodi:arg1="-1.5707963"
         sodipodi:r2="50"
         sodipodi:r1="100"
         sodipodi:cy="503.79077"
         sodipodi:cx="-517.14282"
         sodipodi:sides="5"
         id="path4142"
         style="fill:#000000;fill-opacity:1;stroke:none;stroke-width:2;stroke-linejoin:round;stroke-miterlimit:10;stroke-dasharray:none;stroke-dashoffset:0;stroke-opacity:1"
         sodipodi:type="star" />
    </g>
    <g
       id="g4144-3"
       transform="translate(618.14282,447.57143)">
      <circle
         r="100"
         cy="503.79077"
         cx="-517.14282"
         id="path4136-6"
         style="fill:none;fill-opacity:1;stroke:#ffffff;stroke-width:2;stroke-linejoin:round;stroke-miterlimit:10;stroke-dasharray:none;stroke-dashoffset:0;stroke-opacity:1" />
      <path
         inkscape:transform-center-y="-9.029207"
         d="m -517.14282,403.79077 c 13.28131,0 18.64445,51.74259 29.38926,59.54915 10.74481,7.80656 61.61224,-3.08212 65.71639,9.54915 4.10415,12.63128 -43.44868,33.72127 -47.55283,46.35255 -4.10415,12.63128 21.97051,57.64429 11.2257,65.45085 -10.7448,7.80656 -45.49721,-30.9017 -58.77852,-30.9017 -13.28131,0 -48.03372,38.70826 -58.77853,30.9017 -10.74481,-7.80656 15.32985,-52.81957 11.2257,-65.45085 -4.10415,-12.63128 -51.65697,-33.72127 -47.55282,-46.35255 4.10415,-12.63128 54.97158,-1.74259 65.71638,-9.54915 10.74481,-7.80656 16.10796,-59.54915 29.38927,-59.54915 z"
         inkscape:randomized="0"
         inkscape:rounded="0.2"
         inkscape:flatsided="false"
         sodipodi:arg2="-0.9424778"
         sodipodi:arg1="-1.5707963"
         sodipodi:r2="50"
         sodipodi:r1="100"
         sodipodi:cy="503.79077"
         sodipodi:cx="-517.14282"
         sodipodi:sides="5"
         id="path4142-7"
         style="fill:#ffffff;fill-opacity:1;stroke:none;stroke-width:2;stroke-linejoin:round;stroke-miterlimit:10;stroke-dasharray:none;stroke-dashoffset:0;stroke-opacity:1"
         sodipodi:type="star" />
    </g>
  </g>
</svg>
