<?xml version="1.0" encoding="UTF-8" standalone="no"?>
<!-- Created with Inkscape (http://www.inkscape.org/) -->

<svg
   xmlns:dc="http://purl.org/dc/elements/1.1/"
   xmlns:cc="http://creativecommons.org/ns#"
   xmlns:rdf="http://www.w3.org/1999/02/22-rdf-syntax-ns#"
   xmlns:svg="http://www.w3.org/2000/svg"
   xmlns="http://www.w3.org/2000/svg"
   xmlns:sodipodi="http://sodipodi.sourceforge.net/DTD/sodipodi-0.dtd"
   xmlns:inkscape="http://www.inkscape.org/namespaces/inkscape"
   id="svg2"
   sodipodi:docname="telefon.svg"
   viewBox="0 0 55 55"
   sodipodi:version="0.32"
   version="1.0"
   inkscape:output_extension="org.inkscape.output.svg.inkscape"
   inkscape:version="0.91 r13725"
   width="55"
   height="55">
  <defs
     id="defs13" />
  <sodipodi:namedview
     id="base"
     bordercolor="#666666"
     inkscape:pageshadow="2"
     inkscape:window-y="0"
     pagecolor="#ffffff"
     inkscape:window-height="877"
     inkscape:zoom="4"
     inkscape:window-x="0"
     showgrid="false"
     borderopacity="1.0"
     inkscape:current-layer="layer1"
     inkscape:cx="30.385193"
     inkscape:cy="16.626968"
     inkscape:window-width="1278"
     inkscape:pageopacity="0.0"
     inkscape:document-units="px"
     fit-margin-top="0"
     fit-margin-left="0"
     fit-margin-right="0"
     fit-margin-bottom="0"
     inkscape:window-maximized="0" />
  <g
     id="layer1"
     inkscape:label="Ebene 1"
     inkscape:groupmode="layer"
     transform="translate(5.9824333,0.71251106)">
    <circle
       style="fill:#000000;fill-opacity:1;stroke:none;stroke-width:2;stroke-linejoin:round;stroke-miterlimit:10;stroke-dasharray:none;stroke-dashoffset:0;stroke-opacity:1"
       id="path4149"
       cx="21.517567"
       cy="26.787489"
       r="27.5" />
    <path
       inkscape:connector-curvature="0"
       id="path2383"
       sodipodi:nodetypes="ccccc"
       style="fill:#ffffff;fill-opacity:1;fill-rule:evenodd;stroke:#ffffff;stroke-width:1px;stroke-opacity:1"
       d="m -1.6964294,21.303999 9.8504,0.051 c 0.03,-7.73 26.4330004,-7.142 26.3370004,-0.051 l 10.17,0 c -0.565,-17.9889995 -46.7600004,-17.6689995 -46.3570004,0 z" />
    <path
       inkscape:connector-curvature="0"
       id="path3155"
       sodipodi:nodetypes="ccccc"
       style="fill:#ffffff;fill-opacity:1;fill-rule:evenodd;stroke:#ffffff;stroke-width:1px;stroke-opacity:1"
       d="m -1.6976294,22.946 9.7996,0.177 0,2.187 -9.7627,-0.096 -0.03693,-2.268 z" />
    <path
       inkscape:connector-curvature="0"
       id="path3157"
       sodipodi:nodetypes="ccccc"
       style="fill:#ffffff;fill-opacity:1;fill-rule:evenodd;stroke:#ffffff;stroke-width:1px;stroke-opacity:1"
       d="m 34.536001,22.946 10.205,0.09 0,2.428 -10.295,-0.089 0.09,-2.429 z" />
    <path
       inkscape:connector-curvature="0"
       id="path3159"
       sodipodi:nodetypes="ccccccccccc"
       style="fill:#ffffff;fill-opacity:1;fill-rule:evenodd;stroke:#ffffff;stroke-width:1px;stroke-opacity:1"
       d="m 15.873001,19.111999 2.321,0 0,5.001 6.813,0.104 0,-4.896 2.246,0 0,5 c 3.831,3.57 6.965,7.898 8.535,16.148 l -27.8510004,-0.209 c 1.024,-6.792 3.7180004,-12.131999 7.9360004,-16.147 l 0,-5.001 z" />
    <path
       inkscape:connector-curvature="0"
       id="path3161"
       sodipodi:nodetypes="ccccc"
       style="fill:#ffffff;fill-opacity:1;fill-rule:evenodd;stroke:#ffffff;stroke-width:1px;stroke-opacity:1"
       d="m 7.8620006,41.996999 28.0000004,0.208 0,3.438001 -28.0000004,0 0,-3.646001 z" />
    <circle
       cy="32.792999"
       cx="21.517567"
       id="path3163"
       style="fill:#000000;fill-opacity:1;stroke:none"
       r="5.5" />
  </g>
  <metadata
     id="metadata11">
    <rdf:RDF>
      <cc:Work>
        <dc:format>image/svg+xml</dc:format>
        <dc:type
           rdf:resource="http://purl.org/dc/dcmitype/StillImage" />
        <cc:license
           rdf:resource="http://creativecommons.org/publicdomain/zero/1.0/" />
        <dc:publisher>
          <cc:Agent
             rdf:about="http://openclipart.org/">
            <dc:title>Openclipart</dc:title>
          </cc:Agent>
        </dc:publisher>
        <dc:title>phone sign</dc:title>
        <dc:date>2012-01-22T08:43:00</dc:date>
        <dc:description>a symbol for calling numbers or as you will need it</dc:description>
        <dc:source>https://openclipart.org/detail/167323/phone-sign-by-frankes</dc:source>
        <dc:creator>
          <cc:Agent>
            <dc:title>frankes</dc:title>
          </cc:Agent>
        </dc:creator>
        <dc:subject>
          <rdf:Bag>
            <rdf:li>anrufen</rdf:li>
            <rdf:li>calling</rdf:li>
            <rdf:li>phone</rdf:li>
            <rdf:li>telefon</rdf:li>
          </rdf:Bag>
        </dc:subject>
      </cc:Work>
      <cc:License
         rdf:about="http://creativecommons.org/publicdomain/zero/1.0/">
        <cc:permits
           rdf:resource="http://creativecommons.org/ns#Reproduction" />
        <cc:permits
           rdf:resource="http://creativecommons.org/ns#Distribution" />
        <cc:permits
           rdf:resource="http://creativecommons.org/ns#DerivativeWorks" />
      </cc:License>
    </rdf:RDF>
  </metadata>
</svg>
